01_read_data
…
Read all the files and concatenate them.

d_scores <- purrr::pmap_dfr(.l = d_files, .f = read_1)

# quick view of the data that was read
d_scores

# A tibble: 17,800 × 6
   dataset model           case class_id score_id score_val
   <chr>   <chr>          <int>    <int>    <int>     <dbl>
 1 UCR_14  HDC_MINIROCKET     1        1        0    -0.636
 2 UCR_14  HDC_MINIROCKET     1        1        1     0.380
 3 UCR_14  HDC_MINIROCKET     1        1        2    -1.14 
 4 UCR_14  HDC_MINIROCKET     1        1        3    -0.604
 5 UCR_14  HDC_MINIROCKET     2        3        0    -1.03 
 6 UCR_14  HDC_MINIROCKET     2        3        1    -0.633
 7 UCR_14  HDC_MINIROCKET     2        3        2    -0.560
 8 UCR_14  HDC_MINIROCKET     2        3        3     0.219
 9 UCR_14  HDC_MINIROCKET     3        2        0    -1.21 
10 UCR_14  HDC_MINIROCKET     3        2        1    -1.06 
# … with 17,790 more rows
…
